[
    {
        "id": "1",
        "image": "top-rent-room-img-1.jpg",
        "avatar":"avatar-01.jpg",
        "title": "Pent house",
        "place":"Mattapan, Boston",
        "text":"South King Royal Palace",
        "price":"$600",
        "area":"56000/m2",
        "beds":"3",
        "baths":"2",
        "floors":"4",
        "guest":"4"
    },
    {
        "id": "2",
        "image": "top-rent-room-img-2.jpg",
        "avatar":"avatar-02.jpg",
        "title": "Pent house",
        "place":"East Side, New York",
        "text":"Victorian Bed & Breakfast",
        "price":"$600",
        "area":"56000/m2",
        "beds":"3",
        "baths":"2",
        "floors":"4",
        "guest":"4"
    },
    {
        "id": "3",
        "image": "top-rent-room-img-1.jpg",
        "avatar":"avatar-05.jpg",
        "title": "Pent house",
        "place":"Mattapan, Boston",
        "text":"South King Royal Palace",
        "price":"$600",
        "area":"56000/m2",
        "beds":"3",
        "baths":"2",
        "floors":"4",
        "guest":"4"
    },
    {
        "id": "4",
        "image": "top-rent-room-img-2.jpg",
        "avatar":"avatar-06.jpg",
        "title": "Pent house",
        "place":"East Side, New York",
        "text":"Victorian Bed & Breakfast",
        "price":"$600",
        "area":"56000/m2",
        "beds":"3",
        "baths":"2",
        "floors":"4",
        "guest":"4"
    }
]