[
    {
        "id": "1",
        "image": "property.svg",
        "property_1": "121",
        "title_1":"Elite Poperty",
        "list_1":"45",
        "list_2":"45",
        "list_3":"45",
        "property_2":"188",
        "title_2":"Private Property",
        "category_1":"66",
        "category_2":"87",
        "category_3":"22",
        "avatar":"property.svg"
    },
    {
        "id": "2",
        "image": "property.svg",
        "property_1": "671",
        "title_1":"Tangible Poperty",
        "list_1":"05",
        "list_2":"99",
        "list_3":"76",
        "property_2":"165",
        "title_2":"Personal Property",
        "category_1":"77",
        "category_2":"22",
        "category_3":"06",
        "avatar":"property.svg"
    },
    {
        "id": "3",
        "image": "property.svg",
        "property_1": "991",
        "title_1":"Public Poperty",
        "list_1":"87",
        "list_2":"32",
        "list_3":"64",
        "property_2":"101",
        "title_2":"Personal Property",
        "category_1":"45",
        "category_2":"98",
        "category_3":"32",
        "avatar":"property.svg"
    },
    {
        "id": "4",
        "image": "property.svg",
        "property_1": "876",
        "title_1":"Tangible Poperty",
        "list_1":"09",
        "list_2":"77",
        "list_3":"44",
        "property_2":"921",
        "title_2":"Public Property",
        "category_1":"90",
        "category_2":"76",
        "category_3":"51",
        "avatar":"property.svg"
    },
    {
        "id": "5",
        "image": "property.svg",
        "property_1": "331",
        "title_1":"Elite Poperty",
        "list_1":"49",
        "list_2":"88",
        "list_3":"41",
        "property_2":"555",
        "title_2":"Public Property",
        "category_1":"09",
        "category_2":"99",
        "category_3":"66",
        "avatar":"property.svg"
    },
    {
        "id": "6",
        "image": "property.svg",
        "property_1": "765",
        "title_1":"Personal Poperty",
        "list_1":"79",
        "list_2":"44",
        "list_3":"45",
        "property_2":"191",
        "title_2":"Tangible Property",
        "category_1":"90",
        "category_2":"75",
        "category_3":"12",
        "avatar":"property.svg"
    }
]